// Jest Snapshot v1, https://goo.gl/fbAQLP

exports[`ProductTotal Snapshot should match snapshot 1`] = `
<v-row-stub tag="div">
  <div data-testid="total" class="title">ผลลัพธ์ 300 ชิ้น</div>
</v-row-stub>
`;
